<?xml version="1.0" encoding="UTF-8" standalone="no"?>
<!-- Created with Inkscape (http://www.inkscape.org/) -->

<svg
   xmlns:dc="http://purl.org/dc/elements/1.1/"
   xmlns:cc="http://creativecommons.org/ns#"
   xmlns:rdf="http://www.w3.org/1999/02/22-rdf-syntax-ns#"
   xmlns:svg="http://www.w3.org/2000/svg"
   xmlns="http://www.w3.org/2000/svg"
   xmlns:sodipodi="http://sodipodi.sourceforge.net/DTD/sodipodi-0.dtd"
   xmlns:inkscape="http://www.inkscape.org/namespaces/inkscape"
   width="57.246807mm"
   height="100.53431mm"
   viewBox="0 0 202.84302 356.22393"
   id="svg2"
   version="1.1"
   inkscape:version="0.91 r13725"
   sodipodi:docname="note.svg">
  <defs
     id="defs4" />
  <sodipodi:namedview
     id="base"
     pagecolor="#ffffff"
     bordercolor="#666666"
     borderopacity="1.0"
     inkscape:pageopacity="0.0"
     inkscape:pageshadow="2"
     inkscape:zoom="0.7"
     inkscape:cx="102.72135"
     inkscape:cy="128.57143"
     inkscape:document-units="px"
     inkscape:current-layer="layer1"
     showgrid="false"
     inkscape:window-width="1920"
     inkscape:window-height="1176"
     inkscape:window-x="0"
     inkscape:window-y="24"
     inkscape:window-maximized="1"
     borderlayer="true"
     fit-margin-top="0"
     fit-margin-left="0"
     fit-margin-right="0"
     fit-margin-bottom="0" />
  <metadata
     id="metadata7">
    <rdf:RDF>
      <cc:Work
         rdf:about="">
        <dc:format>image/svg+xml</dc:format>
        <dc:type
           rdf:resource="http://purl.org/dc/dcmitype/StillImage" />
        <dc:title></dc:title>
      </cc:Work>
    </rdf:RDF>
  </metadata>
  <g
     inkscape:label="Layer 1"
     inkscape:groupmode="layer"
     id="layer1"
     transform="translate(-271.42858,-304.7097)">
    <g
       id="g4150"
       transform="translate(60,42.857143)">
      <ellipse
         ry="48.57143"
         rx="74.285713"
         cy="569.50507"
         cx="285.71429"
         id="path4136"
         style="fill:#000000;fill-opacity:1;stroke:none;stroke-width:2;stroke-miterlimit:4;stroke-dasharray:none;stroke-opacity:1" />
      <rect
         y="262.36221"
         x="331.42856"
         height="305.71429"
         width="28.571428"
         id="rect4138"
         style="fill:#000000;fill-opacity:1;stroke:none;stroke-width:2;stroke-miterlimit:4;stroke-dasharray:none;stroke-opacity:1" />
      <path
         inkscape:connector-curvature="0"
         d="m 359.48606,261.85256 c 5.65828,5.65681 10.6994,11.85521 15.61035,18.15896 7.23788,10.01665 14.49528,20.00965 20.75923,30.67093 7.16629,12.14548 11.55002,25.49991 14.66543,39.17336 2.84764,13.49277 3.41561,27.27427 3.70229,41.01328 0.4522,12.4797 -2.3377,24.58901 -5.74406,36.48964 -2.60748,8.20567 -6.25918,16.01714 -10.33524,23.58257 -1.45971,2.95525 -3.09514,5.80165 -4.88781,8.56458 0,0 -19.32917,8.46396 -19.32917,8.46396 l 0,0 c 1.86302,-2.75641 3.79696,-5.45149 5.17554,-8.50379 4.20852,-7.49104 8.07214,-15.19103 10.8726,-23.33511 3.52534,-11.71729 6.50232,-23.64837 6.14999,-35.99538 -0.25317,-13.63085 -0.68648,-27.31815 -3.34989,-40.73441 -0.5552,-2.46874 -1.02912,-4.95717 -1.66561,-7.40622 -2.83561,-10.91084 -7.44837,-21.27609 -12.93097,-31.09755 -6.14131,-10.63438 -13.36549,-20.54406 -20.74992,-30.34623 -4.94106,-6.22364 -10.04111,-12.34545 -16.00714,-17.62872 0,0 18.06438,-11.06987 18.06438,-11.06987 z"
         id="path4148"
         style="fill:#000000;fill-opacity:1;stroke:none;stroke-width:2;stroke-miterlimit:4;stroke-dasharray:none;stroke-opacity:1" />
    </g>
  </g>
</svg>
